%YAML 1.1
%TAG !u! tag:unity3d.com,2011:
--- !u!21 &2100000
Material:
  serializedVersion: 6
  m_ObjectHideFlags: 0
  m_CorrespondingSourceObject: {fileID: 0}
  m_PrefabInstance: {fileID: 0}
  m_PrefabAsset: {fileID: 0}
  m_Name: Explosion 1
  m_Shader: {fileID: 4800000, guid: 4775e5a8f344d6348adf934e722da85d, type: 3}
  m_ShaderKeywords: BlendAlpha Clip_OFF FrameBlend_ON FresnelFade_OFF SoftParticles_ON
    VertLight_OFF
  m_LightmapFlags: 5
  m_EnableInstancingVariants: 0
  m_DoubleSidedGI: 0
  m_CustomRenderQueue: 3200
  stringTagMap: {}
  disabledShaderPasses: []
  m_SavedProperties:
    serializedVersion: 3
    m_TexEnvs:
    - _MainTex:
        m_Texture: {fileID: 2800000, guid: 5acadb32f05ccd242a4280c81a9b4da0, type: 3}
        m_Scale: {x: 1, y: 1}
        m_Offset: {x: 0, y: 0}
    m_Floats:
    - CullMode: 2
    - DstMode: 10
    - SrcMode: 5
    - _ColorStrength: 1
    - _Cutout: 0.1
    - _FresnelStr: 1
    - _InvFade: 5
    - _Shininess: 1
    m_Colors:
    - _Color: {r: 0, g: 0, b: 0, a: 1}
    - _Emission: {r: 0.6397059, g: 0.48918685, b: 0.48918685, a: 0}
    - _SpecColor: {r: 1, g: 1, b: 1, a: 0}
    - _TintColor: {r: 0.47426462, g: 0.65111566, b: 1.5, a: 0.15}
