%YAML 1.1
%TAG !u! tag:unity3d.com,2011:
--- !u!1045 &1
EditorBuildSettings:
  m_ObjectHideFlags: 0
  serializedVersion: 2
  m_Scenes:
  - enabled: 1
    path: Assets/Scenes/Loading.unity
    guid: f6e344f21b266104ca371d204a93cfbb
  - enabled: 1
    path: Assets/Scenes/MainSceneMojo.unity
    guid: 9fc0d4010bbf28b4594072e72b8655ab
  m_configObjects:
    com.unity.xr.management.loader_settings: {fileID: 11400000, guid: c45e68cad26ec2f44a0d0592f4d552c3,
      type: 2}
    com.wikitude.sdk_license_key: {fileID: 11400000, guid: 0bbfb5cbfaaf1584dbeb2b0ddfca4d98,
      type: 2}
