%YAML 1.1
%TAG !u! tag:unity3d.com,2011:
--- !u!21 &2100000
Material:
  serializedVersion: 6
  m_ObjectHideFlags: 0
  m_CorrespondingSourceObject: {fileID: 0}
  m_PrefabInstance: {fileID: 0}
  m_PrefabAsset: {fileID: 0}
  m_Name: 1_7
  m_Shader: {fileID: 4800000, guid: 26666ed61e16c4749bfe5ebac4decd8e, type: 3}
  m_ShaderKeywords: _DISSOLVEALPHASOURCE_TWO_CUSTOM_MAPS _DISSOLVEALPHATEXTUREBLEND_ADD
    _DISSOLVECUTOFFMETHOD_DEFAULT _DISSOLVEEDGECOLORISSOLID_ON _DISSOLVEEDGEDISTORTIONSOURCE_CUTOUT_SOURCE
    _DISSOLVEEDGETEXTURESOURCE_MAIN_MAP _DISSOLVEGLOBALCONTROL_NONE _DISSOLVEMAPPINGTYPE_SCREEN_SPACE
    _DISSOLVEMASKCOUNT_ONE _DISSOLVEMASKMETHOD_NONE _DISSOLVEMASK_NONE _DISSOLVENOISESOURCE_THREE_CUSTOM_MAPS
    _DISSOLVENOISETEXTUREBLEND_ADD _EMISSION
  m_LightmapFlags: 1
  m_EnableInstancingVariants: 0
  m_DoubleSidedGI: 0
  m_CustomRenderQueue: -1
  stringTagMap:
    RenderType: AdvancedDissolveCutout
  disabledShaderPasses: []
  m_SavedProperties:
    serializedVersion: 3
    m_TexEnvs:
    - _BumpMap:
        m_Texture: {fileID: 0}
        m_Scale: {x: 1, y: 1}
        m_Offset: {x: 0, y: 0}
    - _DetailAlbedoMap:
        m_Texture: {fileID: 0}
        m_Scale: {x: 1, y: 1}
        m_Offset: {x: 0, y: 0}
    - _DetailMask:
        m_Texture: {fileID: 0}
        m_Scale: {x: 1, y: 1}
        m_Offset: {x: 0, y: 0}
    - _DetailNormalMap:
        m_Texture: {fileID: 0}
        m_Scale: {x: 1, y: 1}
        m_Offset: {x: 0, y: 0}
    - _DissolveEdgeRamp:
        m_Texture: {fileID: 2800000, guid: c1fae007f2fca5140a067a645e305ac5, type: 3}
        m_Scale: {x: 1, y: 1}
        m_Offset: {x: 0, y: 0}
    - _DissolveEdgeTexture:
        m_Texture: {fileID: 0}
        m_Scale: {x: 1, y: 1}
        m_Offset: {x: 0, y: 0}
    - _DissolveMap1:
        m_Texture: {fileID: 2800000, guid: ae3f7b598d549d24da2a0e5725fe4ccd, type: 3}
        m_Scale: {x: 0.1, y: 0.1}
        m_Offset: {x: 0, y: 0}
    - _DissolveMap2:
        m_Texture: {fileID: 2800000, guid: 3e71d2800f7276a47939a65cc9e0dbed, type: 3}
        m_Scale: {x: 0.3, y: 0.3}
        m_Offset: {x: 0.35, y: 0}
    - _DissolveMap3:
        m_Texture: {fileID: 2800000, guid: c2ccfecb88f75e94fa5722dc4dbe71e3, type: 3}
        m_Scale: {x: 1, y: 1}
        m_Offset: {x: 0, y: 0}
    - _EmissionMap:
        m_Texture: {fileID: 0}
        m_Scale: {x: 1, y: 1}
        m_Offset: {x: 0, y: 0}
    - _MainTex:
        m_Texture: {fileID: 2800000, guid: 3f5b012ab6920174c9add49ee30ad997, type: 3}
        m_Scale: {x: 1, y: 1}
        m_Offset: {x: 0, y: 0}
    - _MetallicGlossMap:
        m_Texture: {fileID: 0}
        m_Scale: {x: 1, y: 1}
        m_Offset: {x: 0, y: 0}
    - _OcclusionMap:
        m_Texture: {fileID: 0}
        m_Scale: {x: 1, y: 1}
        m_Offset: {x: 0, y: 0}
    - _ParallaxMap:
        m_Texture: {fileID: 0}
        m_Scale: {x: 1, y: 1}
        m_Offset: {x: 0, y: 0}
    - _SpecGlossMap:
        m_Texture: {fileID: 0}
        m_Scale: {x: 1, y: 1}
        m_Offset: {x: 0, y: 0}
    m_Floats:
    - _BumpScale: 1
    - _Cull: 0
    - _Cutoff: 0
    - _DetailNormalMapScale: 1
    - _DissolveAlphaSource: 2
    - _DissolveAlphaSourceTexturesUVSet: 0
    - _DissolveAlphaStrength: 0
    - _DissolveAlphaTextureBlend: 1
    - _DissolveAxisInvert: 1
    - _DissolveCutoff: 0.27
    - _DissolveCutoffAxis: 1
    - _DissolveCutoffMethod: 0
    - _DissolveEdgeColorIntensity: 0.9
    - _DissolveEdgeColorIsSolid: 1
    - _DissolveEdgeDistortionSource: 0
    - _DissolveEdgeDistortionStrength: 0
    - _DissolveEdgeShape: 0
    - _DissolveEdgeSize: 0.1
    - _DissolveEdgeTextureAlphaOffset: 0
    - _DissolveEdgeTextureIsDynamic: 0
    - _DissolveEdgeTextureMipmap: 1
    - _DissolveEdgeTexturePhaseOffset: 0
    - _DissolveEdgeTextureReverse: 0
    - _DissolveEdgeTextureSource: 2
    - _DissolveEdgeWidth: 0.1
    - _DissolveGIMultiplier: 0.7
    - _DissolveGIStrength: 1.5
    - _DissolveGlobalControl: 0
    - _DissolveMainMapTiling: 1
    - _DissolveMap1_Invert: 0
    - _DissolveMap1_Strength: 1
    - _DissolveMap2_Invert: 0
    - _DissolveMap2_Strength: 1
    - _DissolveMap3_Invert: 0
    - _DissolveMap3_Strength: 1
    - _DissolveMappingType: 2
    - _DissolveMask: 0
    - _DissolveMaskAxis: 0
    - _DissolveMaskCount: 0
    - _DissolveMaskInvert: 1
    - _DissolveMaskMethod: 0
    - _DissolveMaskOffset: 0
    - _DissolveMaskRadius: 1
    - _DissolveMaskSpace: 0
    - _DissolveMaskSphereRadius: 1
    - _DissolveNoiseSource: 3
    - _DissolveNoiseStrength: 0.1
    - _DissolveNoiseTextureBlend: 1
    - _DissolvePEOffset: 0.36
    - _DissolveSERadius: 1
    - _DissolveSourceAlphaTexturesBlend: 0
    - _DissolveSphereRadius: 1
    - _DissolveTriplanarMainMapTiling: 1
    - _DissolveTriplanarMappingSpace: 0
    - _DissolveUVSet: 0
    - _DstBlend: 0
    - _GlossMapScale: 1
    - _Glossiness: 0.565
    - _GlossyReflections: 1
    - _MainTexCutoff: 0
    - _Metallic: 1
    - _Mode: 0
    - _OcclusionStrength: 1
    - _Parallax: 0.02
    - _Shininess: 0.7
    - _SmoothnessTextureChannel: 0
    - _SpecularHighlights: 1
    - _SrcBlend: 1
    - _UVSec: 0
    - _ZWrite: 1
    m_Colors:
    - _Color: {r: 0.31132078, g: 0.31132078, b: 0.31132078, a: 1}
    - _DissolveEdgeColor: {r: 2.670157, g: 2.670157, b: 2.670157, a: 1}
    - _DissolveMap1_Scroll: {r: 0, g: -0.5, b: 0, a: 0}
    - _DissolveMap2_Scroll: {r: 0, g: -0.15, b: 0, a: 0}
    - _DissolveMap3_Scroll: {r: 0, g: -1, b: 0, a: 0}
    - _DissolveMaskNormal: {r: 1, g: 0, b: 0, a: 0}
    - _DissolveMaskPlaneNormal: {r: 0, g: 0, b: 0, a: 0}
    - _DissolveMaskPosition: {r: 0, g: 0, b: 0, a: 0}
    - _DissolvePENormal: {r: 0, g: 1, b: 0, a: 0}
    - _DissolvePENormal2: {r: -0.035787266, g: -0.9977993, b: -0.05582036, a: 0}
    - _DissolvePSEPosition: {r: -0.03, g: 0.481, b: 1.615, a: 0}
    - _DissolvePSEPosition2: {r: -0.03, g: 1.187, b: 1.476, a: 0}
    - _DissolvePlaneNormal: {r: 0, g: 0, b: 0, a: 0}
    - _Dissolve_ObjectWorldPos: {r: 2.9, g: 0.6, b: -1.86, a: 0}
    - _EmissionColor: {r: 0, g: 0, b: 0, a: 1}
    - _SpecColor: {r: 1, g: 1, b: 1, a: 1}
    - _V_Dissolve_ObjectWorldPos: {r: -0.57, g: 0.746, b: 1.493, a: 0}
