%YAML 1.1
%TAG !u! tag:unity3d.com,2011:
--- !u!21 &2100000
Material:
  serializedVersion: 6
  m_ObjectHideFlags: 0
  m_CorrespondingSourceObject: {fileID: 0}
  m_PrefabInstance: {fileID: 0}
  m_PrefabAsset: {fileID: 0}
  m_Name: blacksmith_rope
  m_Shader: {fileID: 4800000, guid: d9f081e7b97927d4b848a322747a5819, type: 3}
  m_ShaderKeywords: SMOOTHNESS_IN_ALBEDO _DISSOLVEALPHASOURCE_TWO_CUSTOM_MAPS _DISSOLVEEDGEDISTORTIONSOURCE_CUTOUT_SOURCE
    _DISSOLVEGLOBALCONTROL_ALL _DISSOLVEMAPPINGTYPE_TRIPLANAR _DISSOLVEMASK_SPHERE
    _EMISSION _NORMALMAP
  m_LightmapFlags: 1
  m_EnableInstancingVariants: 0
  m_DoubleSidedGI: 0
  m_CustomRenderQueue: -1
  stringTagMap:
    RenderType: AdvancedDissolveCutout
  disabledShaderPasses: []
  m_SavedProperties:
    serializedVersion: 3
    m_TexEnvs:
    - _BumpMap:
        m_Texture: {fileID: 2800000, guid: 359101f4b20541d45a7a7bce8337d804, type: 3}
        m_Scale: {x: 1, y: 1}
        m_Offset: {x: 0, y: 0}
    - _DetailAlbedoMap:
        m_Texture: {fileID: 0}
        m_Scale: {x: 1, y: 1}
        m_Offset: {x: 0, y: 0}
    - _DetailMask:
        m_Texture: {fileID: 0}
        m_Scale: {x: 1, y: 1}
        m_Offset: {x: 0, y: 0}
    - _DetailNormalMap:
        m_Texture: {fileID: 0}
        m_Scale: {x: 1, y: 1}
        m_Offset: {x: 0, y: 0}
    - _DissolveEdgeTexture:
        m_Texture: {fileID: 0}
        m_Scale: {x: 1, y: 1}
        m_Offset: {x: 0, y: 0}
    - _DissolveMap1:
        m_Texture: {fileID: 0}
        m_Scale: {x: 1, y: 1}
        m_Offset: {x: 0, y: 0}
    - _DissolveMap2:
        m_Texture: {fileID: 0}
        m_Scale: {x: 1, y: 1}
        m_Offset: {x: 0, y: 0}
    - _DissolveMap3:
        m_Texture: {fileID: 0}
        m_Scale: {x: 1, y: 1}
        m_Offset: {x: 0, y: 0}
    - _EmissionMap:
        m_Texture: {fileID: 0}
        m_Scale: {x: 1, y: 1}
        m_Offset: {x: 0, y: 0}
    - _MainTex:
        m_Texture: {fileID: 2800000, guid: 818930d05c5e3cf40b39d634e5e93a74, type: 3}
        m_Scale: {x: 1, y: 1}
        m_Offset: {x: 0, y: 0}
    - _MaskyMixAlbedo:
        m_Texture: {fileID: 0}
        m_Scale: {x: 1, y: 1}
        m_Offset: {x: 0, y: 0}
    - _MaskyMixBumpMap:
        m_Texture: {fileID: 2800000, guid: 3f071f1579ab97645946b775f61e77fa, type: 3}
        m_Scale: {x: 1, y: 1}
        m_Offset: {x: 0, y: 0}
    - _MaskyMixMask:
        m_Texture: {fileID: 0}
        m_Scale: {x: 1, y: 1}
        m_Offset: {x: 0, y: 0}
    - _MetallicGlossMap:
        m_Texture: {fileID: 0}
        m_Scale: {x: 1, y: 1}
        m_Offset: {x: 0, y: 0}
    - _OcclusionMap:
        m_Texture: {fileID: 2800000, guid: 51f344767867b3646a63814e1b5f767b, type: 3}
        m_Scale: {x: 1, y: 1}
        m_Offset: {x: 0, y: 0}
    - _ParallaxMap:
        m_Texture: {fileID: 0}
        m_Scale: {x: 1, y: 1}
        m_Offset: {x: 0, y: 0}
    - _SpecGlossMap:
        m_Texture: {fileID: 0}
        m_Scale: {x: 1, y: 1}
        m_Offset: {x: 0, y: 0}
    m_Floats:
    - _BumpScale: 1
    - _Cull: 0
    - _CullMode: 2
    - _Cutoff: 0
    - _DetailNormalMapScale: 1
    - _DissolveAlphaSource: 2
    - _DissolveAlphaSourceTexturesUVSet: 0
    - _DissolveCutoff: 0.25
    - _DissolveEdgeColorIntensity: 0
    - _DissolveEdgeColorIsSolid: 0
    - _DissolveEdgeDistortionSource: 0
    - _DissolveEdgeDistortionStrength: 0
    - _DissolveEdgeShape: 0
    - _DissolveEdgeTextureAlphaOffset: 0
    - _DissolveEdgeTextureIsDynamic: 0
    - _DissolveEdgeTextureMipmap: 1
    - _DissolveEdgeTexturePhaseOffset: 0
    - _DissolveEdgeTextureReverse: 0
    - _DissolveEdgeTextureSource: 0
    - _DissolveEdgeWidth: 0.25
    - _DissolveGIMultiplier: 1
    - _DissolveGlobalControl: 3
    - _DissolveMainMapTiling: 1
    - _DissolveMappingType: 1
    - _DissolveMask: 3
    - _DissolveMaskAxis: 0
    - _DissolveMaskCount: 0
    - _DissolveMaskInvert: 1
    - _DissolveMaskOffset: 0
    - _DissolveMaskRadius: 1
    - _DissolveMaskSpace: 0
    - _DissolveNoiseStrength: 0.1
    - _DissolveSourceAlphaTexturesBlend: 0
    - _DissolveTriplanarMainMapTiling: 1
    - _DissolveTriplanarMappingSpace: 0
    - _DstBlend: 0
    - _GlossMapScale: 1
    - _Glossiness: 0.171
    - _GlossyReflections: 1
    - _MaskyMixBumpScale: 1.5
    - _MaskyMixMaskFalloff: 0.39
    - _MaskyMixMaskThresholdHi: 0.786
    - _MaskyMixMaskThresholdLow: 0.48
    - _MaskyMixMaskTile: 10
    - _MaskyMixUVTile: 5
    - _MetaAlbedoDesaturation: 0
    - _Metallic: 0
    - _Mode: 0
    - _OcclusionStrength: 0.569
    - _Orthonormalize: 0
    - _Parallax: 0.02
    - _SmoothnessInAlbedo: 1
    - _SmoothnessTextureChannel: 0
    - _SpecularHighlights: 1
    - _SrcBlend: 1
    - _UVSec: 0
    - _ZWrite: 1
    m_Colors:
    - _Color: {r: 0.9273356, g: 0.93544924, b: 0.9411765, a: 1}
    - _DissolveEdgeColor: {r: 0, g: 1, b: 0, a: 1}
    - _DissolveMap1_Scroll: {r: 0, g: 0, b: 0, a: 0}
    - _DissolveMap2_Scroll: {r: 0, g: 0, b: 0, a: 0}
    - _DissolveMap3_Scroll: {r: 0, g: 0, b: 0, a: 0}
    - _DissolveMaskNormal: {r: 1, g: 0, b: 0, a: 0}
    - _DissolveMaskPosition: {r: 0, g: 0, b: 0, a: 0}
    - _Dissolve_ObjectWorldPos: {r: 0, g: 0, b: 0, a: 0}
    - _EmissionColor: {r: 0, g: 0, b: 0, a: 1}
    - _MaskyMixColor: {r: 0.38431376, g: 0.38823533, b: 0.23137257, a: 0.5}
    - _MaskyMixSpecColor: {r: 0.2, g: 0.2, b: 0.2, a: 1}
    - _MaskyMixWorldDirection: {r: 0, g: 1, b: 0, a: 0}
    - _MetaAlbedoAdd: {r: 0, g: 0, b: 0, a: 0}
    - _MetaAlbedoTint: {r: 1, g: 1, b: 1, a: 1}
    - _SpecColor: {r: 0.2, g: 0.2, b: 0.2, a: 1}
