%YAML 1.1
%TAG !u! tag:unity3d.com,2011:
--- !u!21 &2100000
Material:
  serializedVersion: 6
  m_ObjectHideFlags: 0
  m_CorrespondingSourceObject: {fileID: 0}
  m_PrefabInstance: {fileID: 0}
  m_PrefabAsset: {fileID: 0}
  m_Name: blacksmith_beams_broken
  m_Shader: {fileID: 4800000, guid: d9f081e7b97927d4b848a322747a5819, type: 3}
  m_ShaderKeywords: _DETAIL_MULX2 _DISSOLVEALPHASOURCE_TWO_CUSTOM_MAPS _DISSOLVEEDGEDISTORTIONSOURCE_CUTOUT_SOURCE
    _DISSOLVEGLOBALCONTROL_ALL _DISSOLVEMAPPINGTYPE_TRIPLANAR _DISSOLVEMASK_SPHERE
    _NORMALMAP
  m_LightmapFlags: 4
  m_EnableInstancingVariants: 0
  m_DoubleSidedGI: 0
  m_CustomRenderQueue: -1
  stringTagMap:
    RenderType: AdvancedDissolveCutout
  disabledShaderPasses: []
  m_SavedProperties:
    serializedVersion: 3
    m_TexEnvs:
    - _BumpMap:
        m_Texture: {fileID: 2800000, guid: 967ff4081fa4654459e4f051e6389038, type: 3}
        m_Scale: {x: 1, y: 1}
        m_Offset: {x: 0, y: 0}
    - _DetailAlbedoMap:
        m_Texture: {fileID: 2800000, guid: 952a2ea567a97ef46b04be3ec9ab763f, type: 3}
        m_Scale: {x: 5, y: 5}
        m_Offset: {x: 0, y: 0}
    - _DetailMask:
        m_Texture: {fileID: 0}
        m_Scale: {x: 1, y: 1}
        m_Offset: {x: 0, y: 0}
    - _DetailNormalMap:
        m_Texture: {fileID: 2800000, guid: 4757a081d99444242b016a30654029bb, type: 3}
        m_Scale: {x: 1, y: 1}
        m_Offset: {x: 0, y: 0}
    - _DissolveEdgeTexture:
        m_Texture: {fileID: 0}
        m_Scale: {x: 1, y: 1}
        m_Offset: {x: 0, y: 0}
    - _DissolveMap1:
        m_Texture: {fileID: 0}
        m_Scale: {x: 1, y: 1}
        m_Offset: {x: 0, y: 0}
    - _DissolveMap2:
        m_Texture: {fileID: 0}
        m_Scale: {x: 1, y: 1}
        m_Offset: {x: 0, y: 0}
    - _DissolveMap3:
        m_Texture: {fileID: 0}
        m_Scale: {x: 1, y: 1}
        m_Offset: {x: 0, y: 0}
    - _EmissionMap:
        m_Texture: {fileID: 0}
        m_Scale: {x: 1, y: 1}
        m_Offset: {x: 0, y: 0}
    - _MainTex:
        m_Texture: {fileID: 2800000, guid: 1dc626b4a7bbc0c4d9d14d5dba92a644, type: 3}
        m_Scale: {x: 1, y: 1}
        m_Offset: {x: 0, y: 0}
    - _MaskyMixAlbedo:
        m_Texture: {fileID: 2800000, guid: 9c05ab852b0a1034ba7fa0ebc859271c, type: 3}
        m_Scale: {x: 1, y: 1}
        m_Offset: {x: 0, y: 0}
    - _MaskyMixBumpMap:
        m_Texture: {fileID: 2800000, guid: 3f071f1579ab97645946b775f61e77fa, type: 3}
        m_Scale: {x: 1, y: 1}
        m_Offset: {x: 0, y: 0}
    - _MaskyMixMask:
        m_Texture: {fileID: 2800000, guid: 4d9ed45fbfebe3a4a98c686cf6cbf17e, type: 3}
        m_Scale: {x: 1, y: 1}
        m_Offset: {x: 0, y: 0}
    - _MetallicGlossMap:
        m_Texture: {fileID: 0}
        m_Scale: {x: 1, y: 1}
        m_Offset: {x: 0, y: 0}
    - _OcclusionMap:
        m_Texture: {fileID: 2800000, guid: 9ce6df6678cae1a47a90ac03faffa247, type: 3}
        m_Scale: {x: 1, y: 1}
        m_Offset: {x: 0, y: 0}
    - _ParallaxMap:
        m_Texture: {fileID: 0}
        m_Scale: {x: 1, y: 1}
        m_Offset: {x: 0, y: 0}
    - _SpecGlossMap:
        m_Texture: {fileID: 0}
        m_Scale: {x: 1, y: 1}
        m_Offset: {x: 0, y: 0}
    m_Floats:
    - _BumpScale: 1
    - _Cull: 0
    - _Cutoff: 0
    - _DetailNormalMapScale: 2
    - _DissolveAlphaSource: 2
    - _DissolveAlphaSourceTexturesUVSet: 0
    - _DissolveCutoff: 0.25
    - _DissolveEdgeColorIntensity: 0
    - _DissolveEdgeColorIsSolid: 0
    - _DissolveEdgeDistortionSource: 0
    - _DissolveEdgeDistortionStrength: 0
    - _DissolveEdgeShape: 0
    - _DissolveEdgeTextureAlphaOffset: 0
    - _DissolveEdgeTextureIsDynamic: 0
    - _DissolveEdgeTextureMipmap: 1
    - _DissolveEdgeTexturePhaseOffset: 0
    - _DissolveEdgeTextureReverse: 0
    - _DissolveEdgeTextureSource: 0
    - _DissolveEdgeWidth: 0.25
    - _DissolveGIMultiplier: 1
    - _DissolveGlobalControl: 3
    - _DissolveMainMapTiling: 1
    - _DissolveMappingType: 1
    - _DissolveMask: 3
    - _DissolveMaskAxis: 0
    - _DissolveMaskCount: 0
    - _DissolveMaskInvert: 1
    - _DissolveMaskOffset: 0
    - _DissolveMaskRadius: 1
    - _DissolveMaskSpace: 0
    - _DissolveNoiseStrength: 0.1
    - _DissolveSourceAlphaTexturesBlend: 0
    - _DissolveTriplanarMainMapTiling: 1
    - _DissolveTriplanarMappingSpace: 0
    - _DstBlend: 0
    - _GlossMapScale: 1
    - _Glossiness: 0.121
    - _GlossyReflections: 1
    - _MaskyMixBumpScale: 1.5
    - _MaskyMixMaskFalloff: 0.16
    - _MaskyMixMaskThresholdHi: 0.8
    - _MaskyMixMaskThresholdLow: 0.5
    - _MaskyMixMaskTile: 2
    - _MaskyMixUVTile: 5
    - _MetaAlbedoDesaturation: 0
    - _Metallic: 0
    - _Mode: 0
    - _OcclusionStrength: 1
    - _Orthonormalize: 0
    - _Parallax: 0.02
    - _SmoothnessInAlbedo: 0
    - _SmoothnessTextureChannel: 0
    - _SpecularHighlights: 1
    - _SrcBlend: 1
    - _UVSec: 0
    - _ZWrite: 1
    m_Colors:
    - _Color: {r: 0.7289144, g: 0.7532514, b: 0.78676474, a: 1}
    - _DissolveEdgeColor: {r: 0, g: 1, b: 0, a: 1}
    - _DissolveMap1_Scroll: {r: 0, g: 0, b: 0, a: 0}
    - _DissolveMap2_Scroll: {r: 0, g: 0, b: 0, a: 0}
    - _DissolveMap3_Scroll: {r: 0, g: 0, b: 0, a: 0}
    - _DissolveMaskNormal: {r: 1, g: 0, b: 0, a: 0}
    - _DissolveMaskPosition: {r: 0, g: 0, b: 0, a: 0}
    - _Dissolve_ObjectWorldPos: {r: 0, g: 0, b: 0, a: 0}
    - _EmissionColor: {r: 0, g: 0, b: 0, a: 1}
    - _MaskyMixColor: {r: 0.75735295, g: 0.74383426, b: 0.6682526, a: 0.5}
    - _MaskyMixSpecColor: {r: 0.2, g: 0.2, b: 0.2, a: 1}
    - _MaskyMixWorldDirection: {r: 0, g: 1, b: 0, a: 0}
    - _MetaAlbedoAdd: {r: 0, g: 0, b: 0, a: 0}
    - _MetaAlbedoTint: {r: 1, g: 1, b: 1, a: 1}
    - _SpecColor: {r: 0.2, g: 0.2, b: 0.2, a: 1}
